…
``` r
dir_bbox = "R/download_bbox"
## download_gedi(q_bb, out.dir = dir_bbox)
```

We can now read the downloaded data from disk using
`arrow::open_dataset()` and `dplyr::collect()`.

``` r
(data_bbox = open_dataset(dir_bbox) |> dplyr::collect())
```

    # A tibble: 4,516 × 94
       delta_time beamname shotnumber latitude longitude elev_lowestmode  rh100
            <int>    <int>    <int64>    <dbl>     <dbl>           <int>  <int>
     1   79913728        0       8e16     44.2  -0.0895            16370  -6645
     2   79913728        0       8e16     44.2  -0.0883            16179 -14509
     3   79913729        0       8e16     44.2  -0.0835            16754  -4537
     4   79913729        0       8e16     44.3  -0.0345            17070 -26837
     5   79913729        0       8e16     44.3  -0.0296            17973 -29036
     6   79913729        0       8e16     44.3  -0.0242            18463  -5144
     7   79913729        0       8e16     44.3  -0.0230            18536 -11445
     8   79913729        0       8e16     44.3  -0.0181            18662 -17108
     9   79913730        0       8e16     44.3  -0.00778           16932  29791
    10   79913730        0       8e16     44.3  -0.00656           16592 -31308
    # ℹ 4,506 more rows
    # ℹ 87 more variables: rh99 <int>, rh98 <int>, rh97 <int>, rh95 <int>,
    #   rh75 <int>, rh50 <int>, rh25 <int>, sensitivity <int>, night_flag <lgl>,
    #   rh100_a1 <int>, rh100_a2 <int>, rh100_a3 <int>, rh100_a4 <int>,
    #   rh100_a5 <int>, rh100_a6 <int>, rh99_a1 <int>, rh99_a2 <int>,
    #   rh99_a3 <int>, rh99_a4 <int>, rh99_a5 <int>, rh99_a6 <int>, rh98_a1 <int>,
    #   rh98_a2 <int>, rh98_a3 <int>, rh98_a4 <int>, rh98_a5 <int>, …
…
